"서비스구분","서비스ID","대분류명","소분류명","서비스상태","서비스명","결제방법","장소명","서비스대상","바로가기URL","장소X좌표","장소Y좌표","서비스개시시작일시","서비스개시종료일시","접수시작일시","접수종료일시","지역명"
"자체","S190114134533424569","시설대관","다목적실","예약일시중지","관악구 낙성대동 자치회관 3층 다목적실(복합문화방)","유료","낙성대동 주민센터","제한없음","http://yeyak.seoul.go.kr/reservation/view.web?rsvsvcid=S190114134533424569","37.4762950510707","126.95838712440385","2020-01-14 00:00:00.0","2020-12-31 00:00:00.0","2020-01-14 09:00:00.0","2020-12-31 18:00:00.0","관악구"
"자체","S190114135436643319","시설대관","강의실","예약일시중지","관악구 낙성대동 자치회관 5층 강의실","유료","낙성대동 주민센터","제한없음","http://yeyak.seoul.go.kr/reservation/view.web?rsvsvcid=S190114135436643319","37.4762950510707","126.95838712440385","2020-01-14 00:00:00.0","2020-12-31 00:00:00.0","2020-01-14 09:00:00.0","2020-12-31 18:00:00.0","관악구"
"자체","S190114140308814575","시설대관","회의실","예약일시중지","관악구 낙성대동 자치회관 2층 회의실","유료","낙성대동 주민센터","제한없음","http://yeyak.seoul.go.kr/reservation/view.web?rsvsvcid=S190114140308814575","37.4762950510707","126.95838712440385","2020-01-14 00:00:00.0","2020-12-31 00:00:00.0","2020-01-14 09:00:00.0","2020-12-31 18:00:00.0","관악구"
"자체","S200103154106632463","시설대관","회의실","예약일시중지","관악구 낙성대동 자치회관 2층 회의실","유료","낙성대동자치회관","제한없음","http://yeyak.seoul.go.kr/reservation/view.web?rsvsvcid=S200103154106632463","37.4762950510707","126.95838712440386","2020-01-03 00:00:00.0","2020-12-31 00:00:00.0","2020-01-03 09:00:00.0","2020-12-31 18:00:00.0","관악구"
"자체","S191223143028962572","시설대관","주민사랑방","접수중","관악구 서림동 자치회관 1층 주민사랑방","무료","서림동 주민센터","제한없음","http://yeyak.seoul.go.kr/reservation/view.web?rsvsvcid=S191223143028962572","37.47499425406676","126.93499966451908","2020-01-01 00:00:00.0","2020-12-31 00:00:00.0","2020-01-01 09:00:00.0","2020-12-29 18:00:00.0","관악구"
"자체","S191223144016953761","시설대관","다목적실","접수중","관악구 서림동 자치회관 2층 다목적실","유료","서림동 주민센터","제한없음","http://yeyak.seoul.go.kr/reservation/view.web?rsvsvcid=S191223144016953761","37.47499425406676","126.93499966451908","2020-01-01 00:00:00.0","2020-12-31 00:00:00.0","2020-01-01 09:00:00.0","2020-12-29 18:00:00.0","관악구"
"자체","S200106174644087679","시설대관","회의실","접수중","관악구 보훈회관 소회의실(2층)","유료","관악구 보훈회관","제한없음","http://yeyak.seoul.go.kr/reservation/view.web?rsvsvcid=S200106174644087679","37.48116551010393","126.90937465073132","2020-01-06 00:00:00.0","2020-12-27 00:00:00.0","2020-01-06 09:00:00.0","2020-12-23 18:00:00.0","관악구"
"자체","S200106180421079400","시설대관","다목적실","접수중","관악구 보훈회관 다목적실(3층)","유료","관악구 보훈회관","제한없음","http://yeyak.seoul.go.kr/reservation/view.web?rsvsvcid=S200106180421079400","37.48116551010393","126.90937465073132","2020-01-06 00:00:00.0","2020-12-27 00:00:00.0","2020-01-06 09:00:00.0","2020-12-23 18:00:00.0","관악구"
"자체","S200106181526181787","시설대관","강당","접수중","관악구 보훈회관 강당(2층)","유료","관악구 보훈회관","제한없음","http://yeyak.seoul.go.kr/reservation/view.web?rsvsvcid=S200106181526181787","37.48116551010393","126.90937465073132","2020-01-06 00:00:00.0","2020-12-27 00:00:00.0","2020-01-06 00:00:00.0","2020-12-23 00:00:00.0","관악구"
"자체","S180102203034736795","시설대관","강당","예약일시중지","관악구 중앙동 자치회관 2층 강당","유료","중앙동 주민센터","제한없음(서울시 관련시민-상세정보 확인)","http://yeyak.seoul.go.kr/reservation/view.web?rsvsvcid=S180102203034736795","37.484191742508486","126.94975356477165","2020-01-02 00:00:00.0","2020-12-31 00:00:00.0","2020-01-02 09:00:00.0","2020-12-29 18:00:00.0","관악구"
"자체","S180102203755354678","시설대관","다목적실","예약일시중지","관악구 중앙동 자치회관 3층 다목적실","유료","중앙동 주민센터","제한없음(서울시 관련시민-상세정보 확인)","http://yeyak.seoul.go.kr/reservation/view.web?rsvsvcid=S180102203755354678","37.484191742508486","126.94975356477165","2020-01-02 00:00:00.0","2020-12-31 00:00:00.0","2020-01-02 09:00:00.0","2020-12-29 18:00:00.0","관악구"
"자체","S180102204205670379","시설대관","다목적실","예약일시중지","관악구 중앙동 자치회관 3층 소회의실","유료","중앙동 주민센터","제한없음","http://yeyak.seoul.go.kr/reservation/view.web?rsvsvcid=S180102204205670379","37.484191742508486","126.94975356477165","2020-01-02 00:00:00.0","2020-12-31 00:00:00.0","2020-01-02 09:00:00.0","2020-12-29 18:00:00.0","관악구"
"자체","S180102204740410792","시설대관","강의실","예약일시중지","관악구 중앙동 자치회관 3층 프로그램실","유료","중앙동 주민센터","제한없음","http://yeyak.seoul.go.kr/reservation/view.web?rsvsvcid=S180102204740410792","37.484191742508486","126.94975356477165","2020-01-02 00:00:00.0","2020-12-31 00:00:00.0","2020-01-02 09:00:00.0","2020-12-29 18:00:00.0","관악구"
"자체","S200103132924992080","시설대관","다목적실","접수중","관악구 인헌동 주민센터 3층 취미실","유료","인헌동 주민센터","제한없음","http://yeyak.seoul.go.kr/reservation/view.web?rsvsvcid=S200103132924992080","37.47510074964174","126.9653246626022","2020-01-03 00:00:00.0","2020-12-31 00:00:00.0","2020-01-03 09:00:00.0","2020-12-28 18:00:00.0","관악구"
"자체","S200103133401025767","시설대관","다목적실","접수중","관악구 인헌동 주민센터 2층 다목적실","유료","인헌동 주민센터","제한없음","http://yeyak.seoul.go.kr/reservation/view.web?rsvsvcid=S200103133401025767","37.47510074964174","126.9653246626022","2020-01-03 00:00:00.0","2020-12-31 00:00:00.0","2020-01-03 09:00:00.0","2020-12-28 18:00:00.0","관악구"