"서비스구분","서비스ID","대분류명","소분류명","서비스상태","서비스명","결제방법","장소명","서비스대상","바로가기URL","장소X좌표","장소Y좌표","서비스개시시작일시","서비스개시종료일시","접수시작일시","접수종료일시","지역명"
"자체","S191224172437388739","시설대관","강당","예약일시중지","용산구 보광동 주민센터 탁구장","유료(요금안내문의)","보광동 자치회관 >보광동 탁구교실 ","제한없음","http://yeyak.seoul.go.kr/reservation/view.web?rsvsvcid=S191224172437388739","37.5263009993796","127.00018100690067","2019-12-25 00:00:00.0","2020-12-31 00:00:00.0","2019-12-25 00:00:00.0","2020-12-24 23:59:00.0","용산구"
"자체","S191223093550622578","시설대관","회의실","예약일시중지","용산구 후암동주민센터 자치회관 지하 소회의실","유료(요금안내문의)","후암동주민센터","제한없음","http://yeyak.seoul.go.kr/reservation/view.web?rsvsvcid=S191223093550622578","37.548697847707444","126.97815045847554","2020-01-01 00:00:00.0","2020-12-31 00:00:00.0","2020-01-01 09:00:00.0","2020-12-31 23:59:00.0","용산구"
"자체","S191223094600813496","시설대관","회의실","예약일시중지","용산구 후암동주민센터 자치회관 2층 문화교실","유료(요금안내문의)","후암동주민센터","제한없음","http://yeyak.seoul.go.kr/reservation/view.web?rsvsvcid=S191223094600813496","37.548697847707444","126.97815045847554","2020-01-01 00:00:00.0","2020-12-31 00:00:00.0","2020-01-02 00:00:00.0","2020-12-31 23:59:00.0","용산구"
"자체","S191223162829354094","시설대관","강당","예약일시중지","용산구 후암동주민센터 3층 대강당","유료(요금안내문의)","후암동주민센터","제한없음","http://yeyak.seoul.go.kr/reservation/view.web?rsvsvcid=S191223162829354094","37.548697847707444","126.97815045847554","2019-01-01 00:00:00.0","2020-12-31 00:00:00.0","2020-01-01 00:00:00.0","2020-12-31 23:59:00.0","용산구"
"자체","S181221155529498648","시설대관","회의실","예약일시중지","용산구 한강로동주민센터 2층 회의실","유료","한강로동주민센터","제한없음","http://yeyak.seoul.go.kr/reservation/view.web?rsvsvcid=S181221155529498648","37.528142242670505","126.96922807094677","2020-01-01 00:00:00.0","2020-12-31 00:00:00.0","2020-01-01 09:00:00.0","2020-12-31 23:59:00.0","용산구"
"자체","S181221161907348424","시설대관","다목적실","예약일시중지","용산구 한강로동주민센터 지하2층 다목적실","유료","한강로동주민센터","제한없음","http://yeyak.seoul.go.kr/reservation/view.web?rsvsvcid=S181221161907348424","37.528142242670505","126.96922807094677","2020-01-01 00:00:00.0","2020-12-31 00:00:00.0","2020-01-01 09:00:00.0","2020-12-31 22:00:00.0","용산구"
"자체","S191226174312345858","시설대관","강당","예약일시중지","용산구 한강로동 주민센터 4층 소강당","유료(요금안내문의)","한강로동주민센터","제한없음(용산구민 또는 직장인 등에 한함)","http://yeyak.seoul.go.kr/reservation/view.web?rsvsvcid=S191226174312345858","37.528142242670505","126.96922807094677","2020-01-01 00:00:00.0","2020-12-31 00:00:00.0","2019-12-26 00:00:00.0","2020-12-25 23:59:00.0","용산구"
"자체","S191224083755868293","시설대관","다목적실","예약일시중지","용산구 이촌1동주민센터 2층 슬기실","유료","이촌1동주민센터 슬기실","제한없음","http://yeyak.seoul.go.kr/reservation/view.web?rsvsvcid=S191224083755868293","37.52135688370054","126.9732987193275","2019-12-24 00:00:00.0","2020-12-31 00:00:00.0","2019-12-25 00:00:00.0","2020-12-24 23:59:00.0","용산구"
"자체","S200130151828651722","시설대관","친환경(주말)농장","접수종료","용산가족공원 텃밭 분양(개인)","유료","용산가족공원>텃밭","제한없음","http://yeyak.seoul.go.kr/reservation/view.web?rsvsvcid=S200130151828651722","37.52011551295506","126.98459305964647","2020-02-01 00:00:00.0","2020-11-30 00:00:00.0","2020-02-01 00:00:00.0","2020-02-10 23:59:00.0","용산구"
"자체","S200130173233367890","시설대관","친환경(주말)농장","접수종료","용산가족공원 텃밭 분양(단체)","유료","용산가족공원>텃밭","제한없음","http://yeyak.seoul.go.kr/reservation/view.web?rsvsvcid=S200130173233367890","37.52011551295506","126.98459305964647","2020-02-01 00:00:00.0","2020-11-30 00:00:00.0","2020-02-01 00:00:00.0","2020-02-10 23:59:00.0","용산구"
"자체","S191224093146054890","시설대관","회의실","예약일시중지","용산구 보광동주민센터 3층 회의실","유료(요금안내문의)","보광동 자치회관 ","제한없음","http://yeyak.seoul.go.kr/reservation/view.web?rsvsvcid=S191224093146054890","37.5263009993796","127.00018100690067","2019-12-25 00:00:00.0","2020-12-31 00:00:00.0","2019-12-25 00:00:00.0","2020-12-24 23:59:00.0","용산구"
"자체","S191224094157069790","시설대관","강당","예약일시중지","용산구 보광동주민센터 4층 체육실","유료(요금안내문의)","보광동 자치회관 ","제한없음","http://yeyak.seoul.go.kr/reservation/view.web?rsvsvcid=S191224094157069790","37.5263009993796","127.00018100690067","2019-12-25 00:00:00.0","2020-12-31 00:00:00.0","2019-12-25 00:00:00.0","2020-12-24 23:59:00.0","용산구"
"자체","S191224172144215420","시설대관","강당","예약일시중지","용산구 보광동주민센터 5층 강당","유료(요금안내문의)","보광동 자치회관 ","제한없음","http://yeyak.seoul.go.kr/reservation/view.web?rsvsvcid=S191224172144215420","37.5263009993796","127.00018100690067","2019-12-25 00:00:00.0","2020-12-31 00:00:00.0","2019-12-25 00:00:00.0","2020-12-24 23:59:00.0","용산구"
"자체","S191230081432230745","시설대관","강의실","예약일시중지","용산구 효창동주민센터 3층 컴퓨터교실","유료","효창동주민센터","청소년성인제한없음","http://yeyak.seoul.go.kr/reservation/view.web?rsvsvcid=S191230081432230745","37.542509245309944","126.96184001356025","2019-12-25 00:00:00.0","2020-12-31 00:00:00.0","2019-12-25 09:00:00.0","2020-12-24 23:59:00.0","용산구"
"자체","S200102180050859050","시설대관","강당","예약일시중지","용산구 효창동주민센터 4층 소강당","유료(요금안내문의)","효창동주민센터","청소년성인","http://yeyak.seoul.go.kr/reservation/view.web?rsvsvcid=S200102180050859050","37.542509245309944","126.96184001356025","2019-12-25 00:00:00.0","2020-12-31 00:00:00.0","2019-12-25 00:00:00.0","2020-12-24 23:59:00.0","용산구"
"자체","S200103144210935185","시설대관","강당","예약일시중지","용산구 효창동주민센터 5층 대강당","유료(요금안내문의)","효창동주민센터","청소년성인","http://yeyak.seoul.go.kr/reservation/view.web?rsvsvcid=S200103144210935185","37.542509245309944","126.96184001356025","2020-01-03 00:00:00.0","2020-12-31 00:00:00.0","2020-01-03 00:00:00.0","2020-12-24 23:59:00.0","용산구"
"자체","S200103144652462983","시설대관","다목적실","예약일시중지","용산구 효창동주민센터 4층 다목적실","유료(요금안내문의)","효창동주민센터","제한없음","http://yeyak.seoul.go.kr/reservation/view.web?rsvsvcid=S200103144652462983","37.542509245309944","126.96184001356025","2020-01-03 00:00:00.0","2020-12-31 00:00:00.0","2020-01-03 00:00:00.0","2020-12-24 23:59:00.0","용산구"
"자체","S191226094255107655","시설대관","강당","예약일시중지","용산구 이태원2동주민센터 3층 대강당","유료","이태원제2동주민센터","제한없음","http://yeyak.seoul.go.kr/reservation/view.web?rsvsvcid=S191226094255107655","37.541902324341166","126.99019643433718","2019-12-26 00:00:00.0","2020-12-24 00:00:00.0","2019-12-26 00:00:00.0","2020-12-24 23:59:00.0","용산구"
"자체","S191226101426041957","시설대관","강의실","예약일시중지","용산구 이태원2동주민센터 2층 문화교실","유료","이태원제2동주민센터","제한없음","http://yeyak.seoul.go.kr/reservation/view.web?rsvsvcid=S191226101426041957","37.541902324341166","126.99019643433718","2019-12-26 00:00:00.0","2020-12-24 00:00:00.0","2019-12-26 00:00:00.0","2020-12-24 23:59:00.0","용산구"
"자체","S191224105518556736","시설대관","강당","예약일시중지","용산구 서빙고동주민센터 2층 소강당","유료","서빙고동 자치회관","제한없음","http://yeyak.seoul.go.kr/reservation/view.web?rsvsvcid=S191224105518556736","37.520476797947815","126.99465166186368","2019-12-25 00:00:00.0","2020-12-31 00:00:00.0","2019-12-25 00:00:00.0","2020-12-24 23:59:00.0","용산구"
"자체","S191224110534630786","시설대관","강당","예약일시중지","용산구 서빙고동주민센터 5층 대강당","유료","서빙고동 자치회관","제한없음","http://yeyak.seoul.go.kr/reservation/view.web?rsvsvcid=S191224110534630786","37.520476797947815","126.99465166186368","2019-12-25 00:00:00.0","2020-12-31 00:00:00.0","2019-12-25 00:00:00.0","2020-12-24 23:59:00.0","용산구"
"자체","S191224111240420909","시설대관","회의실","예약일시중지","용산구 서빙고동주민센터 6층 회의실","유료","서빙고동 자치회관","제한없음","http://yeyak.seoul.go.kr/reservation/view.web?rsvsvcid=S191224111240420909","37.520476797947815","126.99465166186368","2019-12-25 00:00:00.0","2020-12-31 00:00:00.0","2019-12-25 00:00:00.0","2020-12-24 23:59:00.0","용산구"
"자체","S191224112230797033","시설대관","기타","예약일시중지","용산구 서빙고동주민센터 3층 청소년휴카페","무료","서빙고동 자치회관","청소년","http://yeyak.seoul.go.kr/reservation/view.web?rsvsvcid=S191224112230797033","37.520476797947815","126.99465166186368","2019-12-25 00:00:00.0","2020-12-31 00:00:00.0","2019-12-25 00:00:00.0","2020-12-25 23:59:00.0","용산구"
"자체","S191224153821733686","시설대관","다목적실","접수중","용산구 용산2가동주민센터 3층 대강당","유료","용산2가동주민센터","제한없음","http://yeyak.seoul.go.kr/reservation/view.web?rsvsvcid=S191224153821733686","37.5460752787996","126.98556994027025","2020-01-01 00:00:00.0","2020-12-31 00:00:00.0","2020-01-01 00:00:00.0","2020-12-27 23:59:00.0","용산구"
"자체","S191226144539941665","시설대관","강당","예약일시중지","용산구 용산2가동주민센터 3층 대강당","유료(요금안내문의)","용산2가동주민센터","제한없음","http://yeyak.seoul.go.kr/reservation/view.web?rsvsvcid=S191226144539941665","37.5460752787996","126.98556994027025","2020-01-01 00:00:00.0","2020-12-31 00:00:00.0","2020-01-01 00:00:00.0","2020-12-20 00:00:00.0","용산구"
"자체","S191226151509645211","시설대관","회의실","예약일시중지","용산구 용산2가동주민센터 3층 회의실","유료(요금안내문의)","용산2가동주민센터","제한없음","http://yeyak.seoul.go.kr/reservation/view.web?rsvsvcid=S191226151509645211","37.5460752787996","126.98556994027025","2020-01-01 00:00:00.0","2020-12-31 00:00:00.0","2020-01-01 00:00:00.0","2020-12-25 00:00:00.0","용산구"
"자체","S191218155016696214","시설대관","강당","예약일시중지","용산구 원효로2동주민센터 3층 대강당","유료","원효로제2동 주민센터","제한없음","http://yeyak.seoul.go.kr/reservation/view.web?rsvsvcid=S191218155016696214","37.534353221539476","126.95154829621121","2019-12-24 00:00:00.0","2020-12-31 00:00:00.0","2019-12-24 00:00:00.0","2020-12-25 23:59:00.0","용산구"
"자체","S191218155210190576","시설대관","회의실","예약일시중지","용산구 원효로2동주민센터 2층 회의실","유료","원효로제2동 주민센터","제한없음","http://yeyak.seoul.go.kr/reservation/view.web?rsvsvcid=S191218155210190576","37.534353221539476","126.95154829621121","2019-12-24 00:00:00.0","2020-12-31 00:00:00.0","2019-12-24 00:00:00.0","2020-12-25 23:59:00.0","용산구"
"자체","S191224165634633603","시설대관","강당","예약일시중지","용문동주민센터 4층 대강당 시설대관","유료","용문동주민센터 4층 대강당","제한없음","http://yeyak.seoul.go.kr/reservation/view.web?rsvsvcid=S191224165634633603","37.538954249543785","126.95758291880041","2020-01-01 00:00:00.0","2020-12-31 00:00:00.0","2020-01-01 09:00:00.0","2020-12-31 23:59:00.0","용산구"
"자체","S191218161753990441","시설대관","강당","예약일시중지","용산구 한남동 제천회관 지하1층 강당","유료","용산구 한남동 제천회관 지하1층 강당","제한없음","http://yeyak.seoul.go.kr/reservation/view.web?rsvsvcid=S191218161753990441","37.53123832504793","127.00622252233232","2019-12-18 00:00:00.0","2020-12-31 00:00:00.0","2019-12-18 00:00:00.0","2020-12-31 23:59:00.0","용산구"
"자체","S191224170743539749","시설대관","강당","예약일시중지","용산구 용문동주민센터 3층 자치회관","유료","용문동주민센터 3층 자치회관","제한없음","http://yeyak.seoul.go.kr/reservation/view.web?rsvsvcid=S191224170743539749","37.538954249543785","126.95758291880041","2020-01-01 00:00:00.0","2020-12-31 00:00:00.0","2020-01-01 00:00:00.0","2020-12-31 23:59:00.0","용산구"
"자체","S191224094055215618","시설대관","다목적실","예약일시중지","용산구 이태원1동주민센터 3층 다목적실","유료","이태원제1동주민센터","제한없음","http://yeyak.seoul.go.kr/reservation/view.web?rsvsvcid=S191224094055215618","37.53250699571894","126.99506715328769","2019-12-24 00:00:00.0","2020-12-31 00:00:00.0","2019-12-25 00:00:00.0","2020-12-24 23:59:00.0","용산구"
"자체","S191224095707764174","시설대관","회의실","접수중","용산구 이태원1동주민센터 2층 소회의실","유료","이태원제1동주민센터","제한없음","http://yeyak.seoul.go.kr/reservation/view.web?rsvsvcid=S191224095707764174","37.53250699571894","126.99506715328769","2019-12-25 00:00:00.0","2020-12-31 00:00:00.0","2019-12-25 00:00:00.0","2020-12-24 23:59:00.0","용산구"
"자체","S191226110603165071","시설대관","회의실","예약일시중지","용산구 이태원1동주민센터 2층 소회의실","유료","이태원제1동주민센터","제한없음","http://yeyak.seoul.go.kr/reservation/view.web?rsvsvcid=S191226110603165071","37.53250699571894","126.99506715328769","2019-12-26 00:00:00.0","2020-12-31 00:00:00.0","2019-12-26 00:00:00.0","2020-12-24 23:59:00.0","용산구"
"자체","S191224171859797487","시설대관","회의실","예약일시중지","용산구 원효로1동주민센터 2층 회의실","유료(요금안내문의)","원효로제1동주민센터","제한없음","http://yeyak.seoul.go.kr/reservation/view.web?rsvsvcid=S191224171859797487","37.5372419256","126.9676267129","2020-01-01 00:00:00.0","2020-12-31 00:00:00.0","2019-12-24 00:00:00.0","2020-12-31 23:59:00.0","용산구"
"자체","S191224173027937694","시설대관","강당","예약일시중지","용산구 원효로1동주민센터 4층 강당","유료(요금안내문의)","원효로제1동주민센터","제한없음","http://yeyak.seoul.go.kr/reservation/view.web?rsvsvcid=S191224173027937694","37.5372419256","126.9676267129","2020-01-01 00:00:00.0","2020-12-31 00:00:00.0","2019-12-24 00:00:00.0","2020-12-31 23:59:00.0","용산구"
"자체","S191227135805803681","시설대관","다목적실","예약일시중지","용산구 이촌2동주민센터 3층 대강당","유료","이촌제2동 주민센터","제한없음","http://yeyak.seoul.go.kr/reservation/view.web?rsvsvcid=S191227135805803681","37.526281483665045","126.95465778442812","2019-12-27 00:00:00.0","2020-12-31 00:00:00.0","2019-12-27 00:00:00.0","2020-12-24 23:59:00.0","용산구"
"자체","S191227142425196230","시설대관","다목적실","예약일시중지","용산구 이촌2동주민센터 지하1층 컴퓨터실","유료","이촌제2동 주민센터","제한없음","http://yeyak.seoul.go.kr/reservation/view.web?rsvsvcid=S191227142425196230","37.526281483665045","126.95465778442812","2019-12-27 00:00:00.0","2020-12-31 00:00:00.0","2019-12-27 00:00:00.0","2020-12-24 23:59:00.0","용산구"
"자체","S191227142805715744","시설대관","다목적실","예약일시중지","용산구 이촌2동주민센터 북카페","무료","이촌제2동 주민센터","제한없음","http://yeyak.seoul.go.kr/reservation/view.web?rsvsvcid=S191227142805715744","37.526281483665045","126.95465778442812","2019-12-27 00:00:00.0","2020-12-31 00:00:00.0","2019-12-27 00:00:00.0","2020-12-24 23:59:00.0","용산구"
"자체","S191227143342531867","시설대관","다목적실","예약일시중지","용산구 이촌2동주민센터 지하1층 다목적실","유료","이촌제2동 주민센터","제한없음","http://yeyak.seoul.go.kr/reservation/view.web?rsvsvcid=S191227143342531867","37.526281483665045","126.95465778442812","2019-12-27 00:00:00.0","2020-12-31 00:00:00.0","2019-12-27 00:00:00.0","2020-12-24 23:59:00.0","용산구"
"자체","S200102163547613959","시설대관","회의실","예약일시중지","용산청소년수련관 4층 탐구실","유료(요금안내문의)","용산청소년수련관","제한없음","http://yeyak.seoul.go.kr/reservation/view.web?rsvsvcid=S200102163547613959","37.52135688370054","126.9732987193275","2020-01-02 00:00:00.0","2020-12-31 00:00:00.0","2020-01-02 00:00:00.0","2020-12-31 23:59:00.0","용산구"
"자체","S200102171350177852","시설대관","강당","예약일시중지","용산청소년수련관 지하2층 소체육관","유료(요금안내문의)","용산청소년수련관","제한없음","http://yeyak.seoul.go.kr/reservation/view.web?rsvsvcid=S200102171350177852","37.52135688370054","126.9732987193275","2020-01-02 00:00:00.0","2020-12-31 00:00:00.0","2020-01-02 00:00:00.0","2020-12-31 23:00:00.0","용산구"
"자체","S191218161019327988","시설대관","강의실","예약일시중지","용산구 한남동주민센터 2층 컴퓨터실","유료","한남동주민센터","제한없음","http://yeyak.seoul.go.kr/reservation/view.web?rsvsvcid=S191218161019327988","37.5345649839869","127.00049329822622","2020-01-01 00:00:00.0","2020-12-31 00:00:00.0","2019-12-18 00:00:00.0","2020-12-31 23:59:00.0","용산구"
"자체","S191218161537364388","시설대관","다목적실","예약일시중지","용산구 한남동주민센터 3층 강당","유료","한남동주민센터","제한없음","http://yeyak.seoul.go.kr/reservation/view.web?rsvsvcid=S191218161537364388","37.5345649839869","127.00049329822622","2020-01-01 00:00:00.0","2020-12-31 00:00:00.0","2019-12-18 00:00:00.0","2020-12-31 23:59:00.0","용산구"
"자체","S200102162002794215","시설대관","강의실","예약일시중지","용산아트홀 강의실 대관 ","유료(요금안내문의)","용산구청 아트홀 강의실","제한없음","http://yeyak.seoul.go.kr/reservation/view.web?rsvsvcid=S200102162002794215","37.53245265481936","126.99047825509773","2020-01-02 00:00:00.0","2020-12-31 00:00:00.0","2020-01-02 09:00:00.0","2020-12-31 18:00:00.0","용산구"
"자체","S200102164210542406","시설대관","다목적실","예약일시중지","용산구 문화체육센터 5층 대체육관","유료(요금안내문의)","용산구문화체육센터","제한없음","http://yeyak.seoul.go.kr/reservation/view.web?rsvsvcid=S200102164210542406","37.537241925571394","126.96762671287753","2020-01-02 00:00:00.0","2020-12-31 00:00:00.0","2020-01-02 00:00:00.0","2020-12-31 23:59:00.0","용산구"
"자체","S191224173544144212","시설대관","강당","예약일시중지","용산구 원효로1동주민센터 별관 6층 대강당","유료(요금안내문의)","원효로1동주민센터(별관)","제한없음","http://yeyak.seoul.go.kr/reservation/view.web?rsvsvcid=S191224173544144212","37.53890262506769","126.96501453114469","2020-01-01 00:00:00.0","2020-12-31 00:00:00.0","2019-12-24 00:00:00.0","2020-12-31 23:59:00.0","용산구"
"자체","S191112194607057633","시설대관","녹화/촬영","예약일시중지","2020년 영화촬영1(주간)-이촌","유료","이촌한강공원","제한없음","http://yeyak.seoul.go.kr/reservation/view.web?rsvsvcid=S191112194607057633","","","2019-12-01 00:00:00.0","2020-12-31 00:00:00.0","2019-12-01 00:00:00.0","2020-12-31 00:00:00.0","용산구"
"자체","S191112194922132501","시설대관","녹화/촬영","예약일시중지","2020년 영화촬영1(야간)-이촌","유료","이촌한강공원","제한없음","http://yeyak.seoul.go.kr/reservation/view.web?rsvsvcid=S191112194922132501","","","2019-12-01 00:00:00.0","2020-12-31 00:00:00.0","2019-12-01 00:00:00.0","2020-12-31 00:00:00.0","용산구"
"자체","S191112195151625507","시설대관","녹화/촬영","예약일시중지","2020년 녹화1-이촌","유료","이촌한강공원","제한없음","http://yeyak.seoul.go.kr/reservation/view.web?rsvsvcid=S191112195151625507","","","2019-12-01 00:00:00.0","2020-12-31 00:00:00.0","2019-12-01 00:00:00.0","2020-12-31 00:00:00.0","용산구"
"자체","S191112195412223707","시설대관","녹화/촬영","예약일시중지","2020년 녹화2-이촌","유료","이촌한강공원","제한없음","http://yeyak.seoul.go.kr/reservation/view.web?rsvsvcid=S191112195412223707","","","2019-12-01 00:00:00.0","2020-12-31 00:00:00.0","2019-12-01 00:00:00.0","2020-12-31 00:00:00.0","용산구"
"자체","S191219150003378712","시설대관","강의실","예약일시중지","용산구 청파동주민센터 4층 문화교실","유료","청파동주민센터","제한없음","http://yeyak.seoul.go.kr/reservation/view.web?rsvsvcid=S191219150003378712","37.545477657807176","126.96987273841311","2020-01-01 00:00:00.0","2020-12-31 00:00:00.0","2019-12-19 00:00:00.0","2020-12-25 23:59:00.0","용산구"
"자체","S191219210155349839","시설대관","다목적실","예약일시중지","용산구 청파동주민센터 3층 다목적실","유료","청파동주민센터","제한없음","http://yeyak.seoul.go.kr/reservation/view.web?rsvsvcid=S191219210155349839","37.545477657807176","126.96987273841311","2019-12-19 00:00:00.0","2020-12-31 00:00:00.0","2019-12-19 00:00:00.0","2020-12-31 23:59:00.0","용산구"
"자체","S191219210534560835","시설대관","강당","예약일시중지","용산구 청파동주민센터 2층 강당","유료","청파동주민센터","제한없음","http://yeyak.seoul.go.kr/reservation/view.web?rsvsvcid=S191219210534560835","37.545477657807176","126.96987273841311","2019-12-19 00:00:00.0","2020-12-31 00:00:00.0","2019-12-19 00:00:00.0","2020-12-31 23:59:00.0","용산구"