"서비스구분","서비스ID","대분류명","소분류명","서비스상태","서비스명","결제방법","장소명","서비스대상","바로가기URL","장소X좌표","장소Y좌표","서비스개시시작일시","서비스개시종료일시","접수시작일시","접수종료일시","지역명"
"연계","SEEDFIX-723","체육시설","풋살장","접수중","탄천물재생센터","무료","마루공원","일반시민","http://tancheonpark.com/kr/index.php","","","2020-01-01 00:00:00.0","","2020-01-01 00:00:00.0","","강남구"
"연계","SEEDFIX-727","체육시설","테니스장","접수중","탄천물재생센터","무료","센터내","일반시민","http://tancheonpark.com/kr/index.php","","","2020-01-01 00:00:00.0","","2020-01-01 00:00:00.0","","강남구"
"연계","SEEDFIX-722","체육시설","테니스장","접수중","탄천물재생센터","무료","마루공원","일반시민","http://tancheonpark.com/kr/index.php","","","2020-01-01 00:00:00.0","","2020-01-01 00:00:00.0","","강남구"
"연계","SEEDFIX-725","체육시설","풋살장","접수중","탄천물재생센터","무료","일원에코파크","일반시민","http://tancheonpark.com/kr/index.php","","","2020-01-01 00:00:00.0","","2020-01-01 00:00:00.0","","강남구"
"연계","SEEDFIX-728","체육시설","축구장","접수중","탄천물재생센터","무료","센터내","일반시민","http://tancheonpark.com/kr/index.php","","","2020-01-01 00:00:00.0","","2020-01-01 00:00:00.0","","강남구"
"연계","SEEDFIX-726","체육시설","족구장","접수중","탄천물재생센터","무료","일원에코파크","일반시민","http://tancheonpark.com/kr/index.php","","","2020-01-01 00:00:00.0","","2020-01-01 00:00:00.0","","강남구"
"연계","SEEDFIX-724","체육시설","족구장","접수중","탄천물재생센터","무료","마루공원","일반시민","http://tancheonpark.com/kr/index.php","","","2020-01-01 00:00:00.0","","2020-01-01 00:00:00.0","","강남구"