검사항목,수질기준,계림초등학교(E-1-a-1-01),구 충장동사무소(E-1-b-1-01),장원초등학교(E-1-c-2-01), 남초등학교(E-1-d-2-01),동구청 경제과(E-1-e-3-01) ,명진고등학교(E-5-c-1-01) ,뉴밀레니엄상가(E-5-d-2-01) ,문화예술회관(E-4-e-1-01) , 한국교직원공제회(E-2-A-1-01) ,현대온천 (E-2-B-1-01), 유덕초교(E-2-E-1-01),화개초교 (E-2-F-1-01),풍암고교 (E-2-G-1-01),사직체육공원(E-3-a-1-01) ,(조봉초교(E-3-b-1-01) ,광주대학교(E-3-c-1-01) ,대촌중학교(E-3-d-1-01) ,봉선놀이터(E-3-e-1-01) ,고운어린이공원,차돌어린이공원,충효분교,은혜학교,광주경영고(E-5-a-1-01) ,송정중학교(E-5-b-1-01) ,명진고등학교(E-5-c-1-01) ,뉴밀레니엄상가(E-5-d-2-01) ,문화예술회관(E-4-e-1-01) 
수소이온농도,5.8∼8.5,7.5,7.5,7.0 ,7.6,8.3,7.2,7.4,7,7.3,7.0 ,7.6,7.6,6.9,6.5,7.1,8.1,8.2,7.3,7.3,7.0 ,7.6 ,7.1 ,7.7,7.3,7.2,7.1,6.9
총대장균군,"비음용(5000개/100mL이하), 음용(불검출/100mL)",0,740,0,34,-,0,검출,0,0,0,72,0,0,440,0,0,0,0,0,54,74,380,0,0,0,0,8
질산성질소,20㎎/L 이하,5.7,4.1,불검출,3.1,0.2,0.6,7.5,0.6,10.7,3.2,4.9,0.7,4.4,1.6,1.1,2.7,2.7,1.1,8.5,15.4,1.9,3.4,2.7,불검출,0.6,0.6,불검출
염소이온,250㎎/L 이하,191.2,43.8,11.9,50.5,11.7,10,27,9.8,56.9,28.6,52.4,11.1,53.2,65.8,11.2,16.0 ,15.7,11.0 ,40.6 ,70.3 ,12.0 ,16.3 ,68.8,53,10.4,10.4,62.1
카드뮴,0.01㎎/L 이하,불검출,불검출,불검출,불검출,불검출,불검출,불검출,불검출,불검출,불검출,불검출,불검출,불검출,불검출,불검출,불검출,불검출,불검출,불검출,불검출,불검출,불검출,불검출,불검출,불검출,불검출,불검출
비소,0.05㎎/L 이하,불검출,불검출,불검출,불검출,불검출,불검출,불검출,불검출,불검출,불검출,불검출,불검출,불검출,불검출,불검출,불검출,불검출,불검출,불검출,불검출,불검출,불검출,불검출,불검출,불검출,불검출,불검출
시안,0.01㎎/L 이하,불검출,불검출,불검출,불검출,불검출,불검출,불검출,불검출,불검출,불검출,불검출,불검출,불검출,불검출,불검출,불검출,불검출,불검출,불검출,불검출,불검출,불검출,불검출,불검출,불검출,불검출,불검출
수은,0.001㎎/L 이하,불검출,불검출,불검출,불검출,불검출,불검출,불검출,불검출,불검출,불검출,불검출,불검출,불검출,불검출,불검출,불검출,불검출,불검출,불검출,불검출,불검출,불검출,불검출,불검출,불검출,불검출,불검출
유기인,0.0005㎎/L 이하,불검출,불검출,불검출,불검출,불검출,불검출,불검출,불검출,불검출,불검출,불검출,불검출,불검출,불검출,불검출,불검출,불검출,불검출,불검출,불검출,불검출,불검출,불검출,불검출,불검출,불검출,불검출
페놀,0.005㎎/L 이하,불검출,불검출,불검출,불검출,불검출,불검출,불검출,불검출,불검출,불검출,불검출,불검출,불검출,불검출,불검출,불검출,불검출,불검출,불검출,불검출,불검출,불검출,불검출,불검출,불검출,불검출,불검출
납,0.1㎎/L 이하,불검출,불검출,불검출,불검출,불검출,불검출,불검출,불검출,불검출,불검출,불검출,불검출,불검출,불검출,불검출,불검출,불검출,불검출,불검출,불검출,불검출,불검출,불검출,불검출,불검출,불검출,불검출
6가크롬,0.05㎎/L 이하,불검출,불검출,불검출,불검출,불검출,불검출,불검출,불검출,불검출,불검출,불검출,불검출,불검출,불검출,불검출,불검출,불검출,불검출,불검출,불검출,불검출,불검출,불검출,불검출,불검출,불검출,불검출
트리클로로에틸렌,0.03㎎/L 이하,불검출,불검출,불검출,불검출,불검출,불검출,불검출,불검출,불검출,불검출,불검출,불검출,불검출,불검출,불검출,불검출,불검출,불검출,불검출,불검출,불검출,불검출,불검출,불검출,불검출,불검출,불검출
테트라클로로에틸렌,0.01㎎/L 이하,불검출,불검출,불검출,불검출,불검출,불검출,불검출,불검출,불검출,불검출,불검출,불검출,불검출,불검출,불검출,불검출,불검출,불검출,불검출,불검출,불검출,불검출,불검출,불검출,불검출,불검출,불검출
1.1.1-트리클로로에탄,0.15㎎/L 이하,불검출,불검출,불검출,불검출,불검출,불검출,불검출,불검출,불검출,불검출,불검출,불검출,불검출,불검출,불검출,불검출,불검출,불검출,불검출,불검출,불검출,불검출,불검출,불검출,불검출,불검출,불검출
벤젠,0.015㎎/L 이하,불검출,불검출,불검출,불검출,-,불검출,불검출,불검출,불검출,불검출,불검출,불검출,불검출,불검출,불검출,불검출,불검출,불검출,불검출,불검출,불검출,불검출,불검출,불검출,불검출,불검출,불검출
톨루엔,1㎎/L 이하,불검출,불검출,불검출,불검출,-,불검출,불검출,불검출,불검출,불검출,불검출,불검출,불검출,불검출,불검출,불검출,불검출,불검출,불검출,불검출,불검출,불검출,불검출,불검출,불검출,불검출,불검출
에틸벤젠,0.45㎎/L 이하,불검출,불검출,불검출,불검출,-,불검출,불검출,불검출,불검출,불검출,불검출,불검출,불검출,불검출,불검출,불검출,불검출,불검출,불검출,불검출,불검출,불검출,불검출,불검출,불검출,불검출,불검출
크실렌,0.75㎎/L 이하,불검출,불검출,불검출,불검출,-,불검출,불검출,불검출,불검출,불검출,불검출,불검출,불검출,불검출,불검출,불검출,불검출,불검출,불검출,불검출,불검출,불검출,불검출,불검출,불검출,불검출,불검출
